Chapter 7 Two-way analysis of variance | A short introduction to common statistical data analysis techniques
…
library(tidyverse)
library(emmeans)
library(vtable)

7.1 When to use this model?

A two-way ANOVA is used to estimate how the mean of a quantitative variable changes according to the levels of two categorical variables. You can use a two-way ANOVA when you want to know how two independent variables, in combination, affect a dependent variable. In this example we will use two-way anova to see if applying fertilizer to flowers at the florist or/and at the customer effects the lifespan of a rose.

7.2 Organizing data

df <- read.table("data/3_1_roser.txt", header = TRUE, sep = "", dec = ".", colClasses = c(rep("factor",4),"numeric"))
print(as_tibble(df))

## # A tibble: 24 × 5
##    gardener florist customer flor   time
##    <fct>    <fct>   <fct>    <fct> <dbl>
##  1 0        0       0        1      10.1
##  2 0        0       0        2       8.9
##  3 0        0       0        3      11.4
##  4 1        0       0        1      10.9
##  5 1        0       0        2       6.9
##  6 1        0       0        3      11.2
##  7 0        1       0        1       9.6
##  8 0        1       0        2       9.9
##  9 0        1       0        3      11.3
## 10 0        0       1        1      11.8
## # ℹ 14 more rows

As this chapter is about two-way-ANOVA we will only look at two categorial variables and a responsvariable. For this data our respons variable is time and we choose florist and customer as our explanatory variables.

df = subset(df, select = c("florist","customer","time"))
print(as_tibble(df))

## # A tibble: 24 × 3
##    florist customer  time
##    <fct>   <fct>    <dbl>
##  1 0       0         10.1
##  2 0       0          8.9
##  3 0       0         11.4
##  4 0       0         10.9
##  5 0       0          6.9
##  6 0       0         11.2
##  7 1       0          9.6
##  8 1       0          9.9
##  9 1       0         11.3
## 10 0       1         11.8
## # ℹ 14 more rows
…
